Creating mudata objects
…
Creating mudata objects

Dewey Dunnington

2018-08-19

As demonstrated in vignette("mudata", package = "mudata2"), mudata objects are easy to use and have a quick data-to-analysis time. In contrast, getting data into the format takes a little more time, and requires some familiarity with dplyr and tidyr. This process is essentially the data cleaning step, except that instead of discarding all the information that you don’t need (or won’t fit in the output data structure), you can keep almost everything, possibly adding some documentation that didn’t previously exist. This is a front-end investment of time that will make subsequent users of the data better informed about how and why the data were collected in the first place.

(Mostly) universal data (mudata) objects are created using the mudata() function, which at minimum takes a data frame/tibble with one row per measurement. As an example, I’ll use the data table from the ns_climate dataset:

library(mudata2)
ns_climate %>% tbl_data()

## # A tibble: 115,541 x 7
##    dataset           location     param   date       value flag  flag_text
##    <chr>             <chr>        <chr>   <date>     <dbl> <chr> <chr>    
##  1 ecclimate_monthly SABLE ISLAN… mean_m… 1897-01-01  NA   M     Missing  
##  2 ecclimate_monthly SABLE ISLAN… mean_m… 1897-02-01  NA   M     Missing  
##  3 ecclimate_monthly SABLE ISLAN… mean_m… 1897-03-01  NA   M     Missing  
##  4 ecclimate_monthly SABLE ISLAN… mean_m… 1897-04-01  NA   M     Missing  
##  5 ecclimate_monthly SABLE ISLAN… mean_m… 1897-05-01  NA   M     Missing  
##  6 ecclimate_monthly SABLE ISLAN… mean_m… 1897-06-01  NA   M     Missing  
##  7 ecclimate_monthly SABLE ISLAN… mean_m… 1897-07-01  NA   M     Missing  
##  8 ecclimate_monthly SABLE ISLAN… mean_m… 1897-08-01  NA   M     Missing  
##  9 ecclimate_monthly SABLE ISLAN… mean_m… 1897-09-01  NA   M     Missing  
## 10 ecclimate_monthly SABLE ISLAN… mean_m… 1897-10-01  12.2 <NA>  <NA>     
## # ... with 115,531 more rows
…
